{
  "files": {
    "main.css": "/static/css/main.d2b9a530.chunk.css",
    "main.js": "/static/js/main.a66e475c.chunk.js",
    "main.js.map": "/static/js/main.a66e475c.chunk.js.map",
    "runtime~main.js": "/static/js/runtime~main.a8a9905a.js",
    "runtime~main.js.map": "/static/js/runtime~main.a8a9905a.js.map",
    "static/css/2.d50056c8.chunk.css": "/static/css/2.d50056c8.chunk.css",
    "static/js/2.c8ac190d.chunk.js": "/static/js/2.c8ac190d.chunk.js",
    "static/js/2.c8ac190d.chunk.js.map": "/static/js/2.c8ac190d.chunk.js.map",
    "index.html": "/index.html",
    "precache-manifest.9fe56c32405a2327687c517d4a892eb9.js": "/precache-manifest.9fe56c32405a2327687c517d4a892eb9.js",
    "service-worker.js": "/service-worker.js",
    "static/css/2.d50056c8.chunk.css.map": "/static/css/2.d50056c8.chunk.css.map",
    "static/css/main.d2b9a530.chunk.css.map": "/static/css/main.d2b9a530.chunk.css.map",
    "static/media/exam.png": "/static/media/exam.4bc8b4b4.png",
    "static/media/examRecord.png": "/static/media/examRecord.944d2582.png",
    "static/media/examing.png": "/static/media/examing.d4b37fdb.png",
    "static/media/home.png": "/static/media/home.27710ced.png",
    "static/media/logo.png": "/static/media/logo.0258339b.png",
    "static/media/question.png": "/static/media/question.2055cdee.png"
  }
}